/* XPM */
static char * bottom_right_inactive_xpm[] = {
"34 34 7 1",
" 	c None",
".	c #000000",
"+	c #C6C6C6",
"@	c #808080",
"#	c #626262",
"$	c #424242",
"%	c #A2A2A2",
"                          .+@###$.",
"                          .@$$$$$.",
"                          .+++++@.",
"                          .+%%%@$.",
"                          .+%@@#$.",
"                          .+%@@#$.",
"                          .+%@@#$.",
"                          .+%@@#$.",
"                          .+%@@#$.",
"                          .+%@@#$.",
"                          .+%@@#$.",
"                          .+%@@#$.",
"                          .+%@@#$.",
"                          .+%@@#$.",
"                          .+%@@#$.",
"                          .+%@@#$.",
"                          .+%@@#$.",
"                          .+%@@#$.",
"                          .+%@@#$.",
"                          .+%@@#$.",
"                          .+%@@#$.",
"                          .+%@@#$.",
"                          .+%@@#$.",
"                          .+%@@#$.",
"                          .+%@@#$.",
"                          .+%@@#$.",
"...........................+%@@#$.",
"+@++++++++++++++++++++++++++%@@#$.",
"@$+%%%%%%%%%%%%%%%%%%%%%%%%%%@@#$.",
"#$+%@@@@@@@@@@@@@@@@@@@@@@@@@@@#$.",
"#$+%@@@@@@@@@@@@@@@@@@@@@@@@@@@#$.",
"#$+@############################$.",
"$$@$$$$$$$$$$$$$$$$$$$$$$$$$$$$$$.",
".................................."};
