/* XPM */
static char * maximize_toggled_pressed_xpm[] = {
"25 31 7 1",
" 	c None",
".	c #DAD7CA",
"+	c #A59F80",
"@	c #BDBAAD",
"#	c #5B5746",
"$	c #807C6A",
"%	c #000000",
"                         ",
"                         ",
"                         ",
"                         ",
"                         ",
"                         ",
"                         ",
"........................+",
".@@@@@@@@@@@@@@@@@@@@@@+#",
".@+++++++++++++++++++++$#",
".@+++%%%%%%%%%%%%%%++++$#",
".@+++%$$$$$$$$$$$$%++++$#",
".@+++%$$$$$$$$$$$$%#+++$#",
".@+++%$$$$$$$$$$$$%#+++$#",
".@+++%$$$$$$$$$$$$%#+++$#",
".@+++%$$$$$$$$$$$$%#+++$#",
".@+++%$$$$$$$$$$$$%#+++$#",
".@+++%$$$$$$$$$$$$%#+++$#",
".@+++%$$$$$$$$$$$$%#+++$#",
".@+++%$$$$$$$$$$$$%#+++$#",
".@+++%$$$$$$$$$$$$%#+++$#",
".@+++%$$$$$$$$$$$$%#+++$#",
".@+++%$$$$$$$$$$$$%#+++$#",
".@+++%$$$$$$$$$$$$%#+++$#",
".@+++%$$$$$$$$$$$$%#+++$#",
".@+++%%%%%%%%%%%%%%#+++$#",
".@+++++#############+++$#",
".@+++++++++++++++++++++$#",
".+$$$$$$$$$$$$$$$$$$$$$$#",
"+########################",
"%%%%%%%%%%%%%%%%%%%%%%%%%"};
