/* XPM */
static char * menu_pressed_xpm[] = {
"25 31 7 1",
" 	c None",
".	c #5B5746",
"+	c #A59F80",
"@	c #807C6A",
"#	c #DAD7CA",
"$	c #BDBAAD",
"%	c #000000",
"                         ",
"                         ",
"                         ",
"                         ",
"                         ",
"                         ",
"                         ",
"........................+",
".@@@@@@@@@@@@@@@@@@@@@@+#",
".@+++++++++++++++++++++$#",
".@+++++++++++++++++++++$#",
".@+++++++++++++++++++++$#",
".@+++++++++++++++++++++$#",
".@+++++++++++++++++++++$#",
".@+++++++++++++++++++++$#",
".@+++++++++++++++++++++$#",
".@++%%%%%%%%%%%%%%%%+++$#",
".@++%@@@@@@@@@@@@@@%+++$#",
".@++%@@@@@@@@@@@@@@%.++$#",
".@++%%%%%%%%%%%%%%%%.++$#",
".@++++...............++$#",
".@+++++++++++++++++++++$#",
".@+++++++++++++++++++++$#",
".@+++++++++++++++++++++$#",
".@+++++++++++++++++++++$#",
".@+++++++++++++++++++++$#",
".@+++++++++++++++++++++$#",
".@+++++++++++++++++++++$#",
".+$$$$$$$$$$$$$$$$$$$$$$#",
"+########################",
"%%%%%%%%%%%%%%%%%%%%%%%%%"};
