/* XPM */
static char * stick_toggled_prelight_xpm[] = {
"25 31 9 1",
" 	c None",
".	c #5B5746",
"+	c #A59F80",
"@	c #807C6A",
"#	c #DAD7CA",
"$	c #BDBAAD",
"%	c #262626",
"&	c #000000",
"*	c #8B8567",
"                         ",
"                         ",
"                         ",
"                         ",
"                         ",
"                         ",
"                         ",
"........................+",
".@@@@@@@@@@@@@@@@@@@@@@+#",
".@$$$$$$$$$$$$$$$$$$$$$$#",
".@$$$$$$$$$$$$$$$$$$$$$$#",
".@$$$$$$$$$$$$$$$$$$$$$$#",
".@$$$$$$$$$$$$$$$$$$$$$$#",
".@$$$$$$$$$$$$$$$$$$$$$$#",
".@$$$$$$$$$$$$$$$$$$$$$$#",
".@$$$$$$$%&&%*$$$$$$$$$$#",
".@$$$$$$%&@@&%*$$$$$$$$$#",
".@$$$$$$&@@@@&.$$$$$$$$$#",
".@$$$$$$&@@@@&.$$$$$$$$$#",
".@$$$$$$%&@@&%.$$$$$$$$$#",
".@$$$$$$*%&&%..$$$$$$$$$#",
".@$$$$$$$*....$$$$$$$$$$#",
".@$$$$$$$$$$$$$$$$$$$$$$#",
".@$$$$$$$$$$$$$$$$$$$$$$#",
".@$$$$$$$$$$$$$$$$$$$$$$#",
".@$$$$$$$$$$$$$$$$$$$$$$#",
".@$$$$$$$$$$$$$$$$$$$$$$#",
".@$$$$$$$$$$$$$$$$$$$$$$#",
".+$$$$$$$$$$$$$$$$$$$$$$#",
"+########################",
"&&&&&&&&&&&&&&&&&&&&&&&&&"};
