/* XPM */
static char * title_1_inactive_xpm[] = {
"3 32 6 1",
" 	c #000000",
".	c #C6C6C6",
"+	c #A2A2A2",
"@	c #808080",
"#	c #626262",
"$	c #424242",
"   ",
"...",
"+++",
"@@@",
"@@@",
"###",
"$$$",
"   ",
"+++",
"@@@",
"@@@",
"@@@",
"@@@",
"@@@",
"@@@",
"@@@",
"@@@",
"@@@",
"@@@",
"@@@",
"@@@",
"@@@",
"@@@",
"@@@",
"@@@",
"@@@",
"@@@",
"@@@",
"@@@",
"@@@",
"###",
"   "};
